{
  "project_info": {
    "project_number": "383174162208",
    "firebase_url": "https://popko-c1e44.firebaseio.com",
    "project_id": "popko-c1e44",
    "storage_bucket": "popko-c1e44.appspot.com"
  },
  "client": [
    {
      "client_info": {
        "mobilesdk_app_id": "1:383174162208:android:0244184f2948fca6038945",
        "android_client_info": {
          "package_name": "com.example.popko"
        }
      },
      "oauth_client": [
        {
          "client_id": "383174162208-hu2r2dav21tb3ov3ms5k34bu4bqd5h6d.apps.googleusercontent.com",
          "client_type": 3
        }
      ],
      "api_key": [
        {
          "current_key": "AIzaSyCPicT4DkOU1ukU904HCFInHx8ksvPotbw"
        }
      ],
      "services": {
        "appinvite_service": {
          "other_platform_oauth_client": [
            {
              "client_id": "383174162208-hu2r2dav21tb3ov3ms5k34bu4bqd5h6d.apps.googleusercontent.com",
              "client_type": 3
            }
          ]
        }
      }
    }
  ],
  "configuration_version": "1"
}