-- Merging decision tree log ---
manifest
ADDED from /home/natali/AndroidStudioProjects/new/popko/app/src/main/AndroidManifest.xml:2:1-49:12
INJECTED from /home/natali/AndroidStudioProjects/new/popko/app/src/main/AndroidManifest.xml:2:1-49:12
INJECTED from /home/natali/AndroidStudioProjects/new/popko/app/src/main/AndroidManifest.xml:2:1-49:12
INJECTED from /home/natali/AndroidStudioProjects/new/popko/app/src/main/AndroidManifest.xml:2:1-49:12
MERGED from [androidx.preference:preference:1.1.0] /home/natali/.gradle/caches/transforms-2/files-2.1/7324aeb6b56aaed806174c535764b9fe/preference-1.1.0/AndroidManifest.xml:17:1-24:12
MERGED from [androidx.navigation:navigation-ui-ktx:2.2.1] /home/natali/.gradle/caches/transforms-2/files-2.1/ae648039c22eff2c09160927dad3cacb/navigation-ui-ktx-2.2.1/AndroidManifest.xml:17:1-24:12
MERGED from [androidx.navigation:navigation-ui:2.2.1] /home/natali/.gradle/caches/transforms-2/files-2.1/de25a326a1c2855b11fb995cc77475fb/navigation-ui-2.2.1/AndroidManifest.xml:17:1-24:12
MERGED from [com.google.android.material:material:1.1.0] /home/natali/.gradle/caches/transforms-2/files-2.1/ac4eaa60884be1c5b6242bca6c1fde5c/material-1.1.0/AndroidManifest.xml:17:1-24:12
MERGED from [androidx.appcompat:appcompat:1.1.0] /home/natali/.gradle/caches/transforms-2/files-2.1/2e85fbfbf5f3535b051b716e69574c5c/appcompat-1.1.0/AndroidManifest.xml:17:1-24:12
MERGED from [androidx.constraintlayout:constraintlayout:1.1.3] /home/natali/.gradle/caches/transforms-2/files-2.1/d16d260b2eee11d983d70d257558d4c7/constraintlayout-1.1.3/AndroidManifest.xml:2:1-11:12
MERGED from [androidx.cardview:cardview:1.0.0] /home/natali/.gradle/caches/transforms-2/files-2.1/bc2aa14c31c62471d8139b0a230000cc/cardview-1.0.0/AndroidManifest.xml:17:1-22:12
MERGED from [androidx.legacy:legacy-support-v4:1.0.0] /home/natali/.gradle/caches/transforms-2/files-2.1/67098f27e70645c9cfcb3d0046a69d35/legacy-support-v4-1.0.0/AndroidManifest.xml:17:1-22:12
MERGED from [androidx.lifecycle:lifecycle-extensions:2.2.0] /home/natali/.gradle/caches/transforms-2/files-2.1/82b1628d7f0cb4da83fa66fdfdfb241f/lifecycle-extensions-2.2.0/AndroidManifest.xml:17:1-27:12
MERGED from [androidx.navigation:navigation-fragment-ktx:2.2.1] /home/natali/.gradle/caches/transforms-2/files-2.1/fe836d5695ed160ea452e25227fe07d6/navigation-fragment-ktx-2.2.1/AndroidManifest.xml:17:1-24:12
MERGED from [androidx.gridlayout:gridlayout:1.0.0] /home/natali/.gradle/caches/transforms-2/files-2.1/e96386dcb47e031c80bb0ff41c8b3412/gridlayout-1.0.0/AndroidManifest.xml:17:1-22:12
MERGED from [androidx.navigation:navigation-runtime-ktx:2.2.1] /home/natali/.gradle/caches/transforms-2/files-2.1/ae55091948262c37d4b69bbc14667ec9/navigation-runtime-ktx-2.2.1/AndroidManifest.xml:17:1-24:12
MERGED from [androidx.fragment:fragment-ktx:1.2.0] /home/natali/.gradle/caches/transforms-2/files-2.1/146c2ebf0062a7c484f18d74b6935124/jetified-fragment-ktx-1.2.0/AndroidManifest.xml:17:1-24:12
MERGED from [androidx.activity:activity-ktx:1.1.0] /home/natali/.gradle/caches/transforms-2/files-2.1/7f8a8e9dfcccc846860f151ce33bf3cb/jetified-activity-ktx-1.1.0/AndroidManifest.xml:17:1-24:12
MERGED from [androidx.lifecycle:lifecycle-viewmodel-ktx:2.2.0] /home/natali/.gradle/caches/transforms-2/files-2.1/5393eef8a4db16f42a91f99080a156b3/jetified-lifecycle-viewmodel-ktx-2.2.0/AndroidManifest.xml:17:1-24:12
MERGED from [androidx.navigation:navigation-common-ktx:2.2.1] /home/natali/.gradle/caches/transforms-2/files-2.1/e260729846359d07daf467e020d4d62a/navigation-common-ktx-2.2.1/AndroidManifest.xml:17:1-24:12
MERGED from [androidx.core:core-ktx:1.1.0] /home/natali/.gradle/caches/transforms-2/files-2.1/7d345ac5699bba6b49ce4748a604962e/jetified-core-ktx-1.1.0/AndroidManifest.xml:2:1-9:12
MERGED from [androidx.lifecycle:lifecycle-livedata-core-ktx:2.2.0] /home/natali/.gradle/caches/transforms-2/files-2.1/ad12e67849b655678e0627a15e069904/jetified-lifecycle-livedata-core-ktx-2.2.0/AndroidManifest.xml:17:1-24:12
MERGED from [androidx.lifecycle:lifecycle-runtime-ktx:2.2.0] /home/natali/.gradle/caches/transforms-2/files-2.1/2bae0692e0d7f81c2ed6a32401c94ef9/jetified-lifecycle-runtime-ktx-2.2.0/AndroidManifest.xml:17:1-24:12
MERGED from [androidx.appcompat:appcompat-resources:1.1.0] /home/natali/.gradle/caches/transforms-2/files-2.1/e1a6d003b76b54151107da35d24fecdb/jetified-appcompat-resources-1.1.0/AndroidManifest.xml:17:1-24:12
MERGED from [androidx.legacy:legacy-support-core-ui:1.0.0] /home/natali/.gradle/caches/transforms-2/files-2.1/edc20ae02a2f4feefe8d84e8406daaa0/legacy-support-core-ui-1.0.0/AndroidManifest.xml:17:1-22:12
MERGED from [androidx.drawerlayout:drawerlayout:1.0.0] /home/natali/.gradle/caches/transforms-2/files-2.1/51ef9c3435641b4ec8e4569b3f544ad2/drawerlayout-1.0.0/AndroidManifest.xml:17:1-22:12
MERGED from [androidx.media:media:1.0.0] /home/natali/.gradle/caches/transforms-2/files-2.1/94bc9f1dcfc853b5ee01511c13d3dc83/media-1.0.0/AndroidManifest.xml:17:1-22:12
MERGED from [androidx.legacy:legacy-support-core-utils:1.0.0] /home/natali/.gradle/caches/transforms-2/files-2.1/8691f168613537b30197a4978dbbc169/legacy-support-core-utils-1.0.0/AndroidManifest.xml:17:1-22:12
MERGED from [androidx.coordinatorlayout:coordinatorlayout:1.1.0] /home/natali/.gradle/caches/transforms-2/files-2.1/0143f6ce5f4c2f2a8091d9f8286e16a6/coordinatorlayout-1.1.0/AndroidManifest.xml:17:1-24:12
MERGED from [androidx.transition:transition:1.2.0] /home/natali/.gradle/caches/transforms-2/files-2.1/155b73ac671141c7b8782d53f3560b71/transition-1.2.0/AndroidManifest.xml:17:1-24:12
MERGED from [androidx.vectordrawable:vectordrawable-animated:1.1.0] /home/natali/.gradle/caches/transforms-2/files-2.1/7f0694c3cffd9c94d2bc981bfd5841c8/vectordrawable-animated-1.1.0/AndroidManifest.xml:17:1-24:12
MERGED from [androidx.vectordrawable:vectordrawable:1.1.0] /home/natali/.gradle/caches/transforms-2/files-2.1/0364a4ab1614436c19c2830842e468cc/vectordrawable-1.1.0/AndroidManifest.xml:17:1-24:12
MERGED from [androidx.viewpager2:viewpager2:1.0.0] /home/natali/.gradle/caches/transforms-2/files-2.1/460090fa98b44b5721ab3b3052379cf6/jetified-viewpager2-1.0.0/AndroidManifest.xml:17:1-24:12
MERGED from [androidx.navigation:navigation-fragment:2.2.1] /home/natali/.gradle/caches/transforms-2/files-2.1/6f748ecf1b4dad8875c9e51502ee592d/navigation-fragment-2.2.1/AndroidManifest.xml:17:1-24:12
MERGED from [androidx.fragment:fragment:1.2.1] /home/natali/.gradle/caches/transforms-2/files-2.1/088efcd1bfee0eec6611c919c1584951/fragment-1.2.1/AndroidManifest.xml:17:1-24:12
MERGED from [androidx.viewpager:viewpager:1.0.0] /home/natali/.gradle/caches/transforms-2/files-2.1/e831cab25da9b092566560b0c37a7c99/viewpager-1.0.0/AndroidManifest.xml:17:1-22:12
MERGED from [androidx.slidingpanelayout:slidingpanelayout:1.0.0] /home/natali/.gradle/caches/transforms-2/files-2.1/aa1f6f629355e26b5b62831ac1dc4d66/slidingpanelayout-1.0.0/AndroidManifest.xml:17:1-22:12
MERGED from [androidx.recyclerview:recyclerview:1.1.0] /home/natali/.gradle/caches/transforms-2/files-2.1/a5897dc7685fa3199bb87b12414c88e6/recyclerview-1.1.0/AndroidManifest.xml:17:1-24:12
MERGED from [androidx.customview:customview:1.0.0] /home/natali/.gradle/caches/transforms-2/files-2.1/fe567c8e76c25fc842a73cbcfc7b6d80/customview-1.0.0/AndroidManifest.xml:17:1-22:12
MERGED from [androidx.loader:loader:1.0.0] /home/natali/.gradle/caches/transforms-2/files-2.1/5bc0fa7713f4a6b364d0b3e86964d0f0/loader-1.0.0/AndroidManifest.xml:17:1-22:12
MERGED from [androidx.swiperefreshlayout:swiperefreshlayout:1.0.0] /home/natali/.gradle/caches/transforms-2/files-2.1/d0aea531667ec38e2ae43a995175add1/swiperefreshlayout-1.0.0/AndroidManifest.xml:17:1-22:12
MERGED from [androidx.asynclayoutinflater:asynclayoutinflater:1.0.0] /home/natali/.gradle/caches/transforms-2/files-2.1/49e9f740f174bfe8fd5c79d1c55491a9/asynclayoutinflater-1.0.0/AndroidManifest.xml:17:1-22:12
MERGED from [androidx.navigation:navigation-runtime:2.2.1] /home/natali/.gradle/caches/transforms-2/files-2.1/7b149bbe9acac9f554de1463b5046fe9/navigation-runtime-2.2.1/AndroidManifest.xml:17:1-24:12
MERGED from [androidx.navigation:navigation-common:2.2.1] /home/natali/.gradle/caches/transforms-2/files-2.1/ae1e79b8cc6bf23a454d246f4fd264ea/navigation-common-2.2.1/AndroidManifest.xml:17:1-24:12
MERGED from [androidx.activity:activity:1.1.0] /home/natali/.gradle/caches/transforms-2/files-2.1/acc4d6623980062722c498cf37823657/jetified-activity-1.1.0/AndroidManifest.xml:17:1-24:12
MERGED from [androidx.core:core:1.1.0] /home/natali/.gradle/caches/transforms-2/files-2.1/3472a196979ff9a22ec15df766ba888f/core-1.1.0/AndroidManifest.xml:17:1-26:12
MERGED from [androidx.cursoradapter:cursoradapter:1.0.0] /home/natali/.gradle/caches/transforms-2/files-2.1/6e756cfd63dd62dfd5c95c5c8ea8b4b3/cursoradapter-1.0.0/AndroidManifest.xml:17:1-22:12
MERGED from [androidx.lifecycle:lifecycle-process:2.2.0] /home/natali/.gradle/caches/transforms-2/files-2.1/ded278370b8b3c329052ff7298350701/jetified-lifecycle-process-2.2.0/AndroidManifest.xml:17:1-32:12
MERGED from [androidx.lifecycle:lifecycle-service:2.2.0] /home/natali/.gradle/caches/transforms-2/files-2.1/1309e91cb47698f1e3aa706735bcf9b9/jetified-lifecycle-service-2.2.0/AndroidManifest.xml:17:1-24:12
MERGED from [androidx.lifecycle:lifecycle-runtime:2.2.0] /home/natali/.gradle/caches/transforms-2/files-2.1/af658bc8c0f94169524f8e6b0b16c60c/lifecycle-runtime-2.2.0/AndroidManifest.xml:17:1-24:12
MERGED from [androidx.lifecycle:lifecycle-livedata:2.2.0] /home/natali/.gradle/caches/transforms-2/files-2.1/65e0d48c1a98b9e3cbf27c038c69af68/lifecycle-livedata-2.2.0/AndroidManifest.xml:17:1-24:12
MERGED from [androidx.lifecycle:lifecycle-viewmodel-savedstate:2.2.0] /home/natali/.gradle/caches/transforms-2/files-2.1/11c6a9a8701dca54aff803bb289e964c/jetified-lifecycle-viewmodel-savedstate-2.2.0/AndroidManifest.xml:17:1-24:12
MERGED from [androidx.lifecycle:lifecycle-livedata-core:2.2.0] /home/natali/.gradle/caches/transforms-2/files-2.1/b3b512d185bea4753cce3e2d515995bd/lifecycle-livedata-core-2.2.0/AndroidManifest.xml:17:1-24:12
MERGED from [androidx.arch.core:core-runtime:2.1.0] /home/natali/.gradle/caches/transforms-2/files-2.1/bd26874e70fa47180b62f56b33408ef5/core-runtime-2.1.0/AndroidManifest.xml:17:1-24:12
MERGED from [androidx.savedstate:savedstate:1.0.0] /home/natali/.gradle/caches/transforms-2/files-2.1/584d43940201571120eb187272c159ec/jetified-savedstate-1.0.0/AndroidManifest.xml:17:1-24:12
MERGED from [androidx.lifecycle:lifecycle-viewmodel:2.2.0] /home/natali/.gradle/caches/transforms-2/files-2.1/a8c3d2ebb8af661d05cf29347f2c0e9d/lifecycle-viewmodel-2.2.0/AndroidManifest.xml:17:1-24:12
MERGED from [androidx.versionedparcelable:versionedparcelable:1.1.0] /home/natali/.gradle/caches/transforms-2/files-2.1/5961fd00c741ab61656dfe2b643e2052/versionedparcelable-1.1.0/AndroidManifest.xml:17:1-27:12
MERGED from [androidx.documentfile:documentfile:1.0.0] /home/natali/.gradle/caches/transforms-2/files-2.1/2051ad4906486102f58fea6dfd76b44d/documentfile-1.0.0/AndroidManifest.xml:17:1-22:12
MERGED from [androidx.localbroadcastmanager:localbroadcastmanager:1.0.0] /home/natali/.gradle/caches/transforms-2/files-2.1/0aac437187eccd425125815efd52b805/localbroadcastmanager-1.0.0/AndroidManifest.xml:17:1-22:12
MERGED from [androidx.print:print:1.0.0] /home/natali/.gradle/caches/transforms-2/files-2.1/cf5c4deacc19f4505653c7b546389396/print-1.0.0/AndroidManifest.xml:17:1-22:12
MERGED from [androidx.interpolator:interpolator:1.0.0] /home/natali/.gradle/caches/transforms-2/files-2.1/e9a55ea542469c774c03c44bd2536b04/interpolator-1.0.0/AndroidManifest.xml:17:1-22:12
INJECTED from /home/natali/AndroidStudioProjects/new/popko/app/src/main/AndroidManifest.xml:2:1-49:12
INJECTED from /home/natali/AndroidStudioProjects/new/popko/app/src/main/AndroidManifest.xml:2:1-49:12
INJECTED from /home/natali/AndroidStudioProjects/new/popko/app/src/main/AndroidManifest.xml:2:1-49:12
	package
		ADDED from /home/natali/AndroidStudioProjects/new/popko/app/src/main/AndroidManifest.xml:3:5-32
		INJECTED from /home/natali/AndroidStudioProjects/new/popko/app/src/main/AndroidManifest.xml
		INJECTED from /home/natali/AndroidStudioProjects/new/popko/app/src/main/AndroidManifest.xml
	android:versionName
		INJECTED from /home/natali/AndroidStudioProjects/new/popko/app/src/main/AndroidManifest.xml
		ADDED from /home/natali/AndroidStudioProjects/new/popko/app/src/main/AndroidManifest.xml:2:1-49:12
		INJECTED from /home/natali/AndroidStudioProjects/new/popko/app/src/main/AndroidManifest.xml
	android:versionCode
		INJECTED from /home/natali/AndroidStudioProjects/new/popko/app/src/main/AndroidManifest.xml
		ADDED from /home/natali/AndroidStudioProjects/new/popko/app/src/main/AndroidManifest.xml:2:1-49:12
		INJECTED from /home/natali/AndroidStudioProjects/new/popko/app/src/main/AndroidManifest.xml
	xmlns:android
		ADDED from /home/natali/AndroidStudioProjects/new/popko/app/src/main/AndroidManifest.xml:2:11-69
application
ADDED from /home/natali/AndroidStudioProjects/new/popko/app/src/main/AndroidManifest.xml:5:5-47:19
MERGED from [com.google.android.material:material:1.1.0] /home/natali/.gradle/caches/transforms-2/files-2.1/ac4eaa60884be1c5b6242bca6c1fde5c/material-1.1.0/AndroidManifest.xml:22:5-20
MERGED from [com.google.android.material:material:1.1.0] /home/natali/.gradle/caches/transforms-2/files-2.1/ac4eaa60884be1c5b6242bca6c1fde5c/material-1.1.0/AndroidManifest.xml:22:5-20
MERGED from [androidx.constraintlayout:constraintlayout:1.1.3] /home/natali/.gradle/caches/transforms-2/files-2.1/d16d260b2eee11d983d70d257558d4c7/constraintlayout-1.1.3/AndroidManifest.xml:9:5-20
MERGED from [androidx.constraintlayout:constraintlayout:1.1.3] /home/natali/.gradle/caches/transforms-2/files-2.1/d16d260b2eee11d983d70d257558d4c7/constraintlayout-1.1.3/AndroidManifest.xml:9:5-20
MERGED from [androidx.lifecycle:lifecycle-extensions:2.2.0] /home/natali/.gradle/caches/transforms-2/files-2.1/82b1628d7f0cb4da83fa66fdfdfb241f/lifecycle-extensions-2.2.0/AndroidManifest.xml:24:5-25:19
MERGED from [androidx.lifecycle:lifecycle-extensions:2.2.0] /home/natali/.gradle/caches/transforms-2/files-2.1/82b1628d7f0cb4da83fa66fdfdfb241f/lifecycle-extensions-2.2.0/AndroidManifest.xml:24:5-25:19
MERGED from [androidx.core:core:1.1.0] /home/natali/.gradle/caches/transforms-2/files-2.1/3472a196979ff9a22ec15df766ba888f/core-1.1.0/AndroidManifest.xml:24:5-89
MERGED from [androidx.core:core:1.1.0] /home/natali/.gradle/caches/transforms-2/files-2.1/3472a196979ff9a22ec15df766ba888f/core-1.1.0/AndroidManifest.xml:24:5-89
MERGED from [androidx.lifecycle:lifecycle-process:2.2.0] /home/natali/.gradle/caches/transforms-2/files-2.1/ded278370b8b3c329052ff7298350701/jetified-lifecycle-process-2.2.0/AndroidManifest.xml:24:5-30:19
MERGED from [androidx.lifecycle:lifecycle-process:2.2.0] /home/natali/.gradle/caches/transforms-2/files-2.1/ded278370b8b3c329052ff7298350701/jetified-lifecycle-process-2.2.0/AndroidManifest.xml:24:5-30:19
MERGED from [androidx.versionedparcelable:versionedparcelable:1.1.0] /home/natali/.gradle/caches/transforms-2/files-2.1/5961fd00c741ab61656dfe2b643e2052/versionedparcelable-1.1.0/AndroidManifest.xml:24:5-25:19
MERGED from [androidx.versionedparcelable:versionedparcelable:1.1.0] /home/natali/.gradle/caches/transforms-2/files-2.1/5961fd00c741ab61656dfe2b643e2052/versionedparcelable-1.1.0/AndroidManifest.xml:24:5-25:19
	android:appComponentFactory
		ADDED from [androidx.core:core:1.1.0] /home/natali/.gradle/caches/transforms-2/files-2.1/3472a196979ff9a22ec15df766ba888f/core-1.1.0/AndroidManifest.xml:24:18-86
	android:supportsRtl
		ADDED from /home/natali/AndroidStudioProjects/new/popko/app/src/main/AndroidManifest.xml:10:9-35
	android:label
		ADDED from /home/natali/AndroidStudioProjects/new/popko/app/src/main/AndroidManifest.xml:8:9-41
	android:roundIcon
		ADDED from /home/natali/AndroidStudioProjects/new/popko/app/src/main/AndroidManifest.xml:9:9-54
	android:icon
		ADDED from /home/natali/AndroidStudioProjects/new/popko/app/src/main/AndroidManifest.xml:7:9-43
	android:allowBackup
		ADDED from /home/natali/AndroidStudioProjects/new/popko/app/src/main/AndroidManifest.xml:6:9-35
	android:theme
		ADDED from /home/natali/AndroidStudioProjects/new/popko/app/src/main/AndroidManifest.xml:11:9-40
activity#com.example.popko.activites.StartActivity
ADDED from /home/natali/AndroidStudioProjects/new/popko/app/src/main/AndroidManifest.xml:12:9-18:20
	android:name
		ADDED from /home/natali/AndroidStudioProjects/new/popko/app/src/main/AndroidManifest.xml:12:19-58
intent-filter#action:name:android.intent.action.MAIN+category:name:android.intent.category.LAUNCHER
ADDED from /home/natali/AndroidStudioProjects/new/popko/app/src/main/AndroidManifest.xml:13:13-17:29
action#android.intent.action.MAIN
ADDED from /home/natali/AndroidStudioProjects/new/popko/app/src/main/AndroidManifest.xml:14:17-69
	android:name
		ADDED from /home/natali/AndroidStudioProjects/new/popko/app/src/main/AndroidManifest.xml:14:25-66
category#android.intent.category.LAUNCHER
ADDED from /home/natali/AndroidStudioProjects/new/popko/app/src/main/AndroidManifest.xml:16:17-77
	android:name
		ADDED from /home/natali/AndroidStudioProjects/new/popko/app/src/main/AndroidManifest.xml:16:27-74
activity#com.example.popko.activites.ViewProfileActivity
ADDED from /home/natali/AndroidStudioProjects/new/popko/app/src/main/AndroidManifest.xml:19:9-31:20
	android:label
		ADDED from /home/natali/AndroidStudioProjects/new/popko/app/src/main/AndroidManifest.xml:21:13-45
	android:name
		ADDED from /home/natali/AndroidStudioProjects/new/popko/app/src/main/AndroidManifest.xml:20:13-58
intent-filter#action:name:android.intent.action.MAIN+action:name:android.intent.action.SEND+action:name:android.intent.action.VIEW+category:name:android.intent.category.DEFAULT+data:scheme:geo
ADDED from /home/natali/AndroidStudioProjects/new/popko/app/src/main/AndroidManifest.xml:22:13-30:29
action#android.intent.action.SEND
ADDED from /home/natali/AndroidStudioProjects/new/popko/app/src/main/AndroidManifest.xml:24:17-69
	android:name
		ADDED from /home/natali/AndroidStudioProjects/new/popko/app/src/main/AndroidManifest.xml:24:25-66
action#android.intent.action.VIEW
ADDED from /home/natali/AndroidStudioProjects/new/popko/app/src/main/AndroidManifest.xml:25:17-69
	android:name
		ADDED from /home/natali/AndroidStudioProjects/new/popko/app/src/main/AndroidManifest.xml:25:25-66
data
ADDED from /home/natali/AndroidStudioProjects/new/popko/app/src/main/AndroidManifest.xml:27:17-46
	android:scheme
		ADDED from /home/natali/AndroidStudioProjects/new/popko/app/src/main/AndroidManifest.xml:27:23-43
category#android.intent.category.DEFAULT
ADDED from /home/natali/AndroidStudioProjects/new/popko/app/src/main/AndroidManifest.xml:29:17-76
	android:name
		ADDED from /home/natali/AndroidStudioProjects/new/popko/app/src/main/AndroidManifest.xml:29:27-73
activity#com.example.popko.launcher.Launcher
ADDED from /home/natali/AndroidStudioProjects/new/popko/app/src/main/AndroidManifest.xml:32:9-38:20
	android:label
		ADDED from /home/natali/AndroidStudioProjects/new/popko/app/src/main/AndroidManifest.xml:34:13-45
	android:name
		ADDED from /home/natali/AndroidStudioProjects/new/popko/app/src/main/AndroidManifest.xml:33:13-46
intent-filter#action:name:android.intent.action.MAIN
ADDED from /home/natali/AndroidStudioProjects/new/popko/app/src/main/AndroidManifest.xml:35:13-37:29
activity#com.example.popko.activites.WelcomeActivity
ADDED from /home/natali/AndroidStudioProjects/new/popko/app/src/main/AndroidManifest.xml:39:9-46:20
	android:name
		ADDED from /home/natali/AndroidStudioProjects/new/popko/app/src/main/AndroidManifest.xml:39:19-60
intent-filter#action:name:android.intent.action.MAIN+category:name:android.intent.category.DEFAULT+category:name:android.intent.category.HOME
ADDED from /home/natali/AndroidStudioProjects/new/popko/app/src/main/AndroidManifest.xml:40:13-45:29
category#android.intent.category.HOME
ADDED from /home/natali/AndroidStudioProjects/new/popko/app/src/main/AndroidManifest.xml:43:17-73
	android:name
		ADDED from /home/natali/AndroidStudioProjects/new/popko/app/src/main/AndroidManifest.xml:43:27-70
uses-sdk
INJECTED from /home/natali/AndroidStudioProjects/new/popko/app/src/main/AndroidManifest.xml reason: use-sdk injection requested
INJECTED from /home/natali/AndroidStudioProjects/new/popko/app/src/main/AndroidManifest.xml
INJECTED from /home/natali/AndroidStudioProjects/new/popko/app/src/main/AndroidManifest.xml
MERGED from [androidx.preference:preference:1.1.0] /home/natali/.gradle/caches/transforms-2/files-2.1/7324aeb6b56aaed806174c535764b9fe/preference-1.1.0/AndroidManifest.xml:20:5-22:41
MERGED from [androidx.preference:preference:1.1.0] /home/natali/.gradle/caches/transforms-2/files-2.1/7324aeb6b56aaed806174c535764b9fe/preference-1.1.0/AndroidManifest.xml:20:5-22:41
MERGED from [androidx.navigation:navigation-ui-ktx:2.2.1] /home/natali/.gradle/caches/transforms-2/files-2.1/ae648039c22eff2c09160927dad3cacb/navigation-ui-ktx-2.2.1/AndroidManifest.xml:20:5-22:41
MERGED from [androidx.navigation:navigation-ui-ktx:2.2.1] /home/natali/.gradle/caches/transforms-2/files-2.1/ae648039c22eff2c09160927dad3cacb/navigation-ui-ktx-2.2.1/AndroidManifest.xml:20:5-22:41
MERGED from [androidx.navigation:navigation-ui:2.2.1] /home/natali/.gradle/caches/transforms-2/files-2.1/de25a326a1c2855b11fb995cc77475fb/navigation-ui-2.2.1/AndroidManifest.xml:20:5-22:41
MERGED from [androidx.navigation:navigation-ui:2.2.1] /home/natali/.gradle/caches/transforms-2/files-2.1/de25a326a1c2855b11fb995cc77475fb/navigation-ui-2.2.1/AndroidManifest.xml:20:5-22:41
MERGED from [com.google.android.material:material:1.1.0] /home/natali/.gradle/caches/transforms-2/files-2.1/ac4eaa60884be1c5b6242bca6c1fde5c/material-1.1.0/AndroidManifest.xml:20:5-44
MERGED from [com.google.android.material:material:1.1.0] /home/natali/.gradle/caches/transforms-2/files-2.1/ac4eaa60884be1c5b6242bca6c1fde5c/material-1.1.0/AndroidManifest.xml:20:5-44
MERGED from [androidx.appcompat:appcompat:1.1.0] /home/natali/.gradle/caches/transforms-2/files-2.1/2e85fbfbf5f3535b051b716e69574c5c/appcompat-1.1.0/AndroidManifest.xml:20:5-22:41
MERGED from [androidx.appcompat:appcompat:1.1.0] /home/natali/.gradle/caches/transforms-2/files-2.1/2e85fbfbf5f3535b051b716e69574c5c/appcompat-1.1.0/AndroidManifest.xml:20:5-22:41
MERGED from [androidx.constraintlayout:constraintlayout:1.1.3] /home/natali/.gradle/caches/transforms-2/files-2.1/d16d260b2eee11d983d70d257558d4c7/constraintlayout-1.1.3/AndroidManifest.xml:5:5-7:41
MERGED from [androidx.constraintlayout:constraintlayout:1.1.3] /home/natali/.gradle/caches/transforms-2/files-2.1/d16d260b2eee11d983d70d257558d4c7/constraintlayout-1.1.3/AndroidManifest.xml:5:5-7:41
MERGED from [androidx.cardview:cardview:1.0.0] /home/natali/.gradle/caches/transforms-2/files-2.1/bc2aa14c31c62471d8139b0a230000cc/cardview-1.0.0/AndroidManifest.xml:20:5-44
MERGED from [androidx.cardview:cardview:1.0.0] /home/natali/.gradle/caches/transforms-2/files-2.1/bc2aa14c31c62471d8139b0a230000cc/cardview-1.0.0/AndroidManifest.xml:20:5-44
MERGED from [androidx.legacy:legacy-support-v4:1.0.0] /home/natali/.gradle/caches/transforms-2/files-2.1/67098f27e70645c9cfcb3d0046a69d35/legacy-support-v4-1.0.0/AndroidManifest.xml:20:5-44
MERGED from [androidx.legacy:legacy-support-v4:1.0.0] /home/natali/.gradle/caches/transforms-2/files-2.1/67098f27e70645c9cfcb3d0046a69d35/legacy-support-v4-1.0.0/AndroidManifest.xml:20:5-44
MERGED from [androidx.lifecycle:lifecycle-extensions:2.2.0] /home/natali/.gradle/caches/transforms-2/files-2.1/82b1628d7f0cb4da83fa66fdfdfb241f/lifecycle-extensions-2.2.0/AndroidManifest.xml:20:5-22:41
MERGED from [androidx.lifecycle:lifecycle-extensions:2.2.0] /home/natali/.gradle/caches/transforms-2/files-2.1/82b1628d7f0cb4da83fa66fdfdfb241f/lifecycle-extensions-2.2.0/AndroidManifest.xml:20:5-22:41
MERGED from [androidx.navigation:navigation-fragment-ktx:2.2.1] /home/natali/.gradle/caches/transforms-2/files-2.1/fe836d5695ed160ea452e25227fe07d6/navigation-fragment-ktx-2.2.1/AndroidManifest.xml:20:5-22:41
MERGED from [androidx.navigation:navigation-fragment-ktx:2.2.1] /home/natali/.gradle/caches/transforms-2/files-2.1/fe836d5695ed160ea452e25227fe07d6/navigation-fragment-ktx-2.2.1/AndroidManifest.xml:20:5-22:41
MERGED from [androidx.gridlayout:gridlayout:1.0.0] /home/natali/.gradle/caches/transforms-2/files-2.1/e96386dcb47e031c80bb0ff41c8b3412/gridlayout-1.0.0/AndroidManifest.xml:20:5-44
MERGED from [androidx.gridlayout:gridlayout:1.0.0] /home/natali/.gradle/caches/transforms-2/files-2.1/e96386dcb47e031c80bb0ff41c8b3412/gridlayout-1.0.0/AndroidManifest.xml:20:5-44
MERGED from [androidx.navigation:navigation-runtime-ktx:2.2.1] /home/natali/.gradle/caches/transforms-2/files-2.1/ae55091948262c37d4b69bbc14667ec9/navigation-runtime-ktx-2.2.1/AndroidManifest.xml:20:5-22:41
MERGED from [androidx.navigation:navigation-runtime-ktx:2.2.1] /home/natali/.gradle/caches/transforms-2/files-2.1/ae55091948262c37d4b69bbc14667ec9/navigation-runtime-ktx-2.2.1/AndroidManifest.xml:20:5-22:41
MERGED from [androidx.fragment:fragment-ktx:1.2.0] /home/natali/.gradle/caches/transforms-2/files-2.1/146c2ebf0062a7c484f18d74b6935124/jetified-fragment-ktx-1.2.0/AndroidManifest.xml:20:5-22:41
MERGED from [androidx.fragment:fragment-ktx:1.2.0] /home/natali/.gradle/caches/transforms-2/files-2.1/146c2ebf0062a7c484f18d74b6935124/jetified-fragment-ktx-1.2.0/AndroidManifest.xml:20:5-22:41
MERGED from [androidx.activity:activity-ktx:1.1.0] /home/natali/.gradle/caches/transforms-2/files-2.1/7f8a8e9dfcccc846860f151ce33bf3cb/jetified-activity-ktx-1.1.0/AndroidManifest.xml:20:5-22:41
MERGED from [androidx.activity:activity-ktx:1.1.0] /home/natali/.gradle/caches/transforms-2/files-2.1/7f8a8e9dfcccc846860f151ce33bf3cb/jetified-activity-ktx-1.1.0/AndroidManifest.xml:20:5-22:41
MERGED from [androidx.lifecycle:lifecycle-viewmodel-ktx:2.2.0] /home/natali/.gradle/caches/transforms-2/files-2.1/5393eef8a4db16f42a91f99080a156b3/jetified-lifecycle-viewmodel-ktx-2.2.0/AndroidManifest.xml:20:5-22:41
MERGED from [androidx.lifecycle:lifecycle-viewmodel-ktx:2.2.0] /home/natali/.gradle/caches/transforms-2/files-2.1/5393eef8a4db16f42a91f99080a156b3/jetified-lifecycle-viewmodel-ktx-2.2.0/AndroidManifest.xml:20:5-22:41
MERGED from [androidx.navigation:navigation-common-ktx:2.2.1] /home/natali/.gradle/caches/transforms-2/files-2.1/e260729846359d07daf467e020d4d62a/navigation-common-ktx-2.2.1/AndroidManifest.xml:20:5-22:41
MERGED from [androidx.navigation:navigation-common-ktx:2.2.1] /home/natali/.gradle/caches/transforms-2/files-2.1/e260729846359d07daf467e020d4d62a/navigation-common-ktx-2.2.1/AndroidManifest.xml:20:5-22:41
MERGED from [androidx.core:core-ktx:1.1.0] /home/natali/.gradle/caches/transforms-2/files-2.1/7d345ac5699bba6b49ce4748a604962e/jetified-core-ktx-1.1.0/AndroidManifest.xml:5:5-7:41
MERGED from [androidx.core:core-ktx:1.1.0] /home/natali/.gradle/caches/transforms-2/files-2.1/7d345ac5699bba6b49ce4748a604962e/jetified-core-ktx-1.1.0/AndroidManifest.xml:5:5-7:41
MERGED from [androidx.lifecycle:lifecycle-livedata-core-ktx:2.2.0] /home/natali/.gradle/caches/transforms-2/files-2.1/ad12e67849b655678e0627a15e069904/jetified-lifecycle-livedata-core-ktx-2.2.0/AndroidManifest.xml:20:5-22:41
MERGED from [androidx.lifecycle:lifecycle-livedata-core-ktx:2.2.0] /home/natali/.gradle/caches/transforms-2/files-2.1/ad12e67849b655678e0627a15e069904/jetified-lifecycle-livedata-core-ktx-2.2.0/AndroidManifest.xml:20:5-22:41
MERGED from [androidx.lifecycle:lifecycle-runtime-ktx:2.2.0] /home/natali/.gradle/caches/transforms-2/files-2.1/2bae0692e0d7f81c2ed6a32401c94ef9/jetified-lifecycle-runtime-ktx-2.2.0/AndroidManifest.xml:20:5-22:41
MERGED from [androidx.lifecycle:lifecycle-runtime-ktx:2.2.0] /home/natali/.gradle/caches/transforms-2/files-2.1/2bae0692e0d7f81c2ed6a32401c94ef9/jetified-lifecycle-runtime-ktx-2.2.0/AndroidManifest.xml:20:5-22:41
MERGED from [androidx.appcompat:appcompat-resources:1.1.0] /home/natali/.gradle/caches/transforms-2/files-2.1/e1a6d003b76b54151107da35d24fecdb/jetified-appcompat-resources-1.1.0/AndroidManifest.xml:20:5-22:41
MERGED from [androidx.appcompat:appcompat-resources:1.1.0] /home/natali/.gradle/caches/transforms-2/files-2.1/e1a6d003b76b54151107da35d24fecdb/jetified-appcompat-resources-1.1.0/AndroidManifest.xml:20:5-22:41
MERGED from [androidx.legacy:legacy-support-core-ui:1.0.0] /home/natali/.gradle/caches/transforms-2/files-2.1/edc20ae02a2f4feefe8d84e8406daaa0/legacy-support-core-ui-1.0.0/AndroidManifest.xml:20:5-44
MERGED from [androidx.legacy:legacy-support-core-ui:1.0.0] /home/natali/.gradle/caches/transforms-2/files-2.1/edc20ae02a2f4feefe8d84e8406daaa0/legacy-support-core-ui-1.0.0/AndroidManifest.xml:20:5-44
MERGED from [androidx.drawerlayout:drawerlayout:1.0.0] /home/natali/.gradle/caches/transforms-2/files-2.1/51ef9c3435641b4ec8e4569b3f544ad2/drawerlayout-1.0.0/AndroidManifest.xml:20:5-44
MERGED from [androidx.drawerlayout:drawerlayout:1.0.0] /home/natali/.gradle/caches/transforms-2/files-2.1/51ef9c3435641b4ec8e4569b3f544ad2/drawerlayout-1.0.0/AndroidManifest.xml:20:5-44
MERGED from [androidx.media:media:1.0.0] /home/natali/.gradle/caches/transforms-2/files-2.1/94bc9f1dcfc853b5ee01511c13d3dc83/media-1.0.0/AndroidManifest.xml:20:5-44
MERGED from [androidx.media:media:1.0.0] /home/natali/.gradle/caches/transforms-2/files-2.1/94bc9f1dcfc853b5ee01511c13d3dc83/media-1.0.0/AndroidManifest.xml:20:5-44
MERGED from [androidx.legacy:legacy-support-core-utils:1.0.0] /home/natali/.gradle/caches/transforms-2/files-2.1/8691f168613537b30197a4978dbbc169/legacy-support-core-utils-1.0.0/AndroidManifest.xml:20:5-44
MERGED from [androidx.legacy:legacy-support-core-utils:1.0.0] /home/natali/.gradle/caches/transforms-2/files-2.1/8691f168613537b30197a4978dbbc169/legacy-support-core-utils-1.0.0/AndroidManifest.xml:20:5-44
MERGED from [androidx.coordinatorlayout:coordinatorlayout:1.1.0] /home/natali/.gradle/caches/transforms-2/files-2.1/0143f6ce5f4c2f2a8091d9f8286e16a6/coordinatorlayout-1.1.0/AndroidManifest.xml:20:5-22:41
MERGED from [androidx.coordinatorlayout:coordinatorlayout:1.1.0] /home/natali/.gradle/caches/transforms-2/files-2.1/0143f6ce5f4c2f2a8091d9f8286e16a6/coordinatorlayout-1.1.0/AndroidManifest.xml:20:5-22:41
MERGED from [androidx.transition:transition:1.2.0] /home/natali/.gradle/caches/transforms-2/files-2.1/155b73ac671141c7b8782d53f3560b71/transition-1.2.0/AndroidManifest.xml:20:5-22:41
MERGED from [androidx.transition:transition:1.2.0] /home/natali/.gradle/caches/transforms-2/files-2.1/155b73ac671141c7b8782d53f3560b71/transition-1.2.0/AndroidManifest.xml:20:5-22:41
MERGED from [androidx.vectordrawable:vectordrawable-animated:1.1.0] /home/natali/.gradle/caches/transforms-2/files-2.1/7f0694c3cffd9c94d2bc981bfd5841c8/vectordrawable-animated-1.1.0/AndroidManifest.xml:20:5-22:41
MERGED from [androidx.vectordrawable:vectordrawable-animated:1.1.0] /home/natali/.gradle/caches/transforms-2/files-2.1/7f0694c3cffd9c94d2bc981bfd5841c8/vectordrawable-animated-1.1.0/AndroidManifest.xml:20:5-22:41
MERGED from [androidx.vectordrawable:vectordrawable:1.1.0] /home/natali/.gradle/caches/transforms-2/files-2.1/0364a4ab1614436c19c2830842e468cc/vectordrawable-1.1.0/AndroidManifest.xml:20:5-22:41
MERGED from [androidx.vectordrawable:vectordrawable:1.1.0] /home/natali/.gradle/caches/transforms-2/files-2.1/0364a4ab1614436c19c2830842e468cc/vectordrawable-1.1.0/AndroidManifest.xml:20:5-22:41
MERGED from [androidx.viewpager2:viewpager2:1.0.0] /home/natali/.gradle/caches/transforms-2/files-2.1/460090fa98b44b5721ab3b3052379cf6/jetified-viewpager2-1.0.0/AndroidManifest.xml:20:5-22:41
MERGED from [androidx.viewpager2:viewpager2:1.0.0] /home/natali/.gradle/caches/transforms-2/files-2.1/460090fa98b44b5721ab3b3052379cf6/jetified-viewpager2-1.0.0/AndroidManifest.xml:20:5-22:41
MERGED from [androidx.navigation:navigation-fragment:2.2.1] /home/natali/.gradle/caches/transforms-2/files-2.1/6f748ecf1b4dad8875c9e51502ee592d/navigation-fragment-2.2.1/AndroidManifest.xml:20:5-22:41
MERGED from [androidx.navigation:navigation-fragment:2.2.1] /home/natali/.gradle/caches/transforms-2/files-2.1/6f748ecf1b4dad8875c9e51502ee592d/navigation-fragment-2.2.1/AndroidManifest.xml:20:5-22:41
MERGED from [androidx.fragment:fragment:1.2.1] /home/natali/.gradle/caches/transforms-2/files-2.1/088efcd1bfee0eec6611c919c1584951/fragment-1.2.1/AndroidManifest.xml:20:5-22:41
MERGED from [androidx.fragment:fragment:1.2.1] /home/natali/.gradle/caches/transforms-2/files-2.1/088efcd1bfee0eec6611c919c1584951/fragment-1.2.1/AndroidManifest.xml:20:5-22:41
MERGED from [androidx.viewpager:viewpager:1.0.0] /home/natali/.gradle/caches/transforms-2/files-2.1/e831cab25da9b092566560b0c37a7c99/viewpager-1.0.0/AndroidManifest.xml:20:5-44
MERGED from [androidx.viewpager:viewpager:1.0.0] /home/natali/.gradle/caches/transforms-2/files-2.1/e831cab25da9b092566560b0c37a7c99/viewpager-1.0.0/AndroidManifest.xml:20:5-44
MERGED from [androidx.slidingpanelayout:slidingpanelayout:1.0.0] /home/natali/.gradle/caches/transforms-2/files-2.1/aa1f6f629355e26b5b62831ac1dc4d66/slidingpanelayout-1.0.0/AndroidManifest.xml:20:5-44
MERGED from [androidx.slidingpanelayout:slidingpanelayout:1.0.0] /home/natali/.gradle/caches/transforms-2/files-2.1/aa1f6f629355e26b5b62831ac1dc4d66/slidingpanelayout-1.0.0/AndroidManifest.xml:20:5-44
MERGED from [androidx.recyclerview:recyclerview:1.1.0] /home/natali/.gradle/caches/transforms-2/files-2.1/a5897dc7685fa3199bb87b12414c88e6/recyclerview-1.1.0/AndroidManifest.xml:20:5-22:41
MERGED from [androidx.recyclerview:recyclerview:1.1.0] /home/natali/.gradle/caches/transforms-2/files-2.1/a5897dc7685fa3199bb87b12414c88e6/recyclerview-1.1.0/AndroidManifest.xml:20:5-22:41
MERGED from [androidx.customview:customview:1.0.0] /home/natali/.gradle/caches/transforms-2/files-2.1/fe567c8e76c25fc842a73cbcfc7b6d80/customview-1.0.0/AndroidManifest.xml:20:5-44
MERGED from [androidx.customview:customview:1.0.0] /home/natali/.gradle/caches/transforms-2/files-2.1/fe567c8e76c25fc842a73cbcfc7b6d80/customview-1.0.0/AndroidManifest.xml:20:5-44
MERGED from [androidx.loader:loader:1.0.0] /home/natali/.gradle/caches/transforms-2/files-2.1/5bc0fa7713f4a6b364d0b3e86964d0f0/loader-1.0.0/AndroidManifest.xml:20:5-44
MERGED from [androidx.loader:loader:1.0.0] /home/natali/.gradle/caches/transforms-2/files-2.1/5bc0fa7713f4a6b364d0b3e86964d0f0/loader-1.0.0/AndroidManifest.xml:20:5-44
MERGED from [androidx.swiperefreshlayout:swiperefreshlayout:1.0.0] /home/natali/.gradle/caches/transforms-2/files-2.1/d0aea531667ec38e2ae43a995175add1/swiperefreshlayout-1.0.0/AndroidManifest.xml:20:5-44
MERGED from [androidx.swiperefreshlayout:swiperefreshlayout:1.0.0] /home/natali/.gradle/caches/transforms-2/files-2.1/d0aea531667ec38e2ae43a995175add1/swiperefreshlayout-1.0.0/AndroidManifest.xml:20:5-44
MERGED from [androidx.asynclayoutinflater:asynclayoutinflater:1.0.0] /home/natali/.gradle/caches/transforms-2/files-2.1/49e9f740f174bfe8fd5c79d1c55491a9/asynclayoutinflater-1.0.0/AndroidManifest.xml:20:5-44
MERGED from [androidx.asynclayoutinflater:asynclayoutinflater:1.0.0] /home/natali/.gradle/caches/transforms-2/files-2.1/49e9f740f174bfe8fd5c79d1c55491a9/asynclayoutinflater-1.0.0/AndroidManifest.xml:20:5-44
MERGED from [androidx.navigation:navigation-runtime:2.2.1] /home/natali/.gradle/caches/transforms-2/files-2.1/7b149bbe9acac9f554de1463b5046fe9/navigation-runtime-2.2.1/AndroidManifest.xml:20:5-22:41
MERGED from [androidx.navigation:navigation-runtime:2.2.1] /home/natali/.gradle/caches/transforms-2/files-2.1/7b149bbe9acac9f554de1463b5046fe9/navigation-runtime-2.2.1/AndroidManifest.xml:20:5-22:41
MERGED from [androidx.navigation:navigation-common:2.2.1] /home/natali/.gradle/caches/transforms-2/files-2.1/ae1e79b8cc6bf23a454d246f4fd264ea/navigation-common-2.2.1/AndroidManifest.xml:20:5-22:41
MERGED from [androidx.navigation:navigation-common:2.2.1] /home/natali/.gradle/caches/transforms-2/files-2.1/ae1e79b8cc6bf23a454d246f4fd264ea/navigation-common-2.2.1/AndroidManifest.xml:20:5-22:41
MERGED from [androidx.activity:activity:1.1.0] /home/natali/.gradle/caches/transforms-2/files-2.1/acc4d6623980062722c498cf37823657/jetified-activity-1.1.0/AndroidManifest.xml:20:5-22:41
MERGED from [androidx.activity:activity:1.1.0] /home/natali/.gradle/caches/transforms-2/files-2.1/acc4d6623980062722c498cf37823657/jetified-activity-1.1.0/AndroidManifest.xml:20:5-22:41
MERGED from [androidx.core:core:1.1.0] /home/natali/.gradle/caches/transforms-2/files-2.1/3472a196979ff9a22ec15df766ba888f/core-1.1.0/AndroidManifest.xml:20:5-22:41
MERGED from [androidx.core:core:1.1.0] /home/natali/.gradle/caches/transforms-2/files-2.1/3472a196979ff9a22ec15df766ba888f/core-1.1.0/AndroidManifest.xml:20:5-22:41
MERGED from [androidx.cursoradapter:cursoradapter:1.0.0] /home/natali/.gradle/caches/transforms-2/files-2.1/6e756cfd63dd62dfd5c95c5c8ea8b4b3/cursoradapter-1.0.0/AndroidManifest.xml:20:5-44
MERGED from [androidx.cursoradapter:cursoradapter:1.0.0] /home/natali/.gradle/caches/transforms-2/files-2.1/6e756cfd63dd62dfd5c95c5c8ea8b4b3/cursoradapter-1.0.0/AndroidManifest.xml:20:5-44
MERGED from [androidx.lifecycle:lifecycle-process:2.2.0] /home/natali/.gradle/caches/transforms-2/files-2.1/ded278370b8b3c329052ff7298350701/jetified-lifecycle-process-2.2.0/AndroidManifest.xml:20:5-22:41
MERGED from [androidx.lifecycle:lifecycle-process:2.2.0] /home/natali/.gradle/caches/transforms-2/files-2.1/ded278370b8b3c329052ff7298350701/jetified-lifecycle-process-2.2.0/AndroidManifest.xml:20:5-22:41
MERGED from [androidx.lifecycle:lifecycle-service:2.2.0] /home/natali/.gradle/caches/transforms-2/files-2.1/1309e91cb47698f1e3aa706735bcf9b9/jetified-lifecycle-service-2.2.0/AndroidManifest.xml:20:5-22:41
MERGED from [androidx.lifecycle:lifecycle-service:2.2.0] /home/natali/.gradle/caches/transforms-2/files-2.1/1309e91cb47698f1e3aa706735bcf9b9/jetified-lifecycle-service-2.2.0/AndroidManifest.xml:20:5-22:41
MERGED from [androidx.lifecycle:lifecycle-runtime:2.2.0] /home/natali/.gradle/caches/transforms-2/files-2.1/af658bc8c0f94169524f8e6b0b16c60c/lifecycle-runtime-2.2.0/AndroidManifest.xml:20:5-22:41
MERGED from [androidx.lifecycle:lifecycle-runtime:2.2.0] /home/natali/.gradle/caches/transforms-2/files-2.1/af658bc8c0f94169524f8e6b0b16c60c/lifecycle-runtime-2.2.0/AndroidManifest.xml:20:5-22:41
MERGED from [androidx.lifecycle:lifecycle-livedata:2.2.0] /home/natali/.gradle/caches/transforms-2/files-2.1/65e0d48c1a98b9e3cbf27c038c69af68/lifecycle-livedata-2.2.0/AndroidManifest.xml:20:5-22:41
MERGED from [androidx.lifecycle:lifecycle-livedata:2.2.0] /home/natali/.gradle/caches/transforms-2/files-2.1/65e0d48c1a98b9e3cbf27c038c69af68/lifecycle-livedata-2.2.0/AndroidManifest.xml:20:5-22:41
MERGED from [androidx.lifecycle:lifecycle-viewmodel-savedstate:2.2.0] /home/natali/.gradle/caches/transforms-2/files-2.1/11c6a9a8701dca54aff803bb289e964c/jetified-lifecycle-viewmodel-savedstate-2.2.0/AndroidManifest.xml:20:5-22:41
MERGED from [androidx.lifecycle:lifecycle-viewmodel-savedstate:2.2.0] /home/natali/.gradle/caches/transforms-2/files-2.1/11c6a9a8701dca54aff803bb289e964c/jetified-lifecycle-viewmodel-savedstate-2.2.0/AndroidManifest.xml:20:5-22:41
MERGED from [androidx.lifecycle:lifecycle-livedata-core:2.2.0] /home/natali/.gradle/caches/transforms-2/files-2.1/b3b512d185bea4753cce3e2d515995bd/lifecycle-livedata-core-2.2.0/AndroidManifest.xml:20:5-22:41
MERGED from [androidx.lifecycle:lifecycle-livedata-core:2.2.0] /home/natali/.gradle/caches/transforms-2/files-2.1/b3b512d185bea4753cce3e2d515995bd/lifecycle-livedata-core-2.2.0/AndroidManifest.xml:20:5-22:41
MERGED from [androidx.arch.core:core-runtime:2.1.0] /home/natali/.gradle/caches/transforms-2/files-2.1/bd26874e70fa47180b62f56b33408ef5/core-runtime-2.1.0/AndroidManifest.xml:20:5-22:41
MERGED from [androidx.arch.core:core-runtime:2.1.0] /home/natali/.gradle/caches/transforms-2/files-2.1/bd26874e70fa47180b62f56b33408ef5/core-runtime-2.1.0/AndroidManifest.xml:20:5-22:41
MERGED from [androidx.savedstate:savedstate:1.0.0] /home/natali/.gradle/caches/transforms-2/files-2.1/584d43940201571120eb187272c159ec/jetified-savedstate-1.0.0/AndroidManifest.xml:20:5-22:41
MERGED from [androidx.savedstate:savedstate:1.0.0] /home/natali/.gradle/caches/transforms-2/files-2.1/584d43940201571120eb187272c159ec/jetified-savedstate-1.0.0/AndroidManifest.xml:20:5-22:41
MERGED from [androidx.lifecycle:lifecycle-viewmodel:2.2.0] /home/natali/.gradle/caches/transforms-2/files-2.1/a8c3d2ebb8af661d05cf29347f2c0e9d/lifecycle-viewmodel-2.2.0/AndroidManifest.xml:20:5-22:41
MERGED from [androidx.lifecycle:lifecycle-viewmodel:2.2.0] /home/natali/.gradle/caches/transforms-2/files-2.1/a8c3d2ebb8af661d05cf29347f2c0e9d/lifecycle-viewmodel-2.2.0/AndroidManifest.xml:20:5-22:41
MERGED from [androidx.versionedparcelable:versionedparcelable:1.1.0] /home/natali/.gradle/caches/transforms-2/files-2.1/5961fd00c741ab61656dfe2b643e2052/versionedparcelable-1.1.0/AndroidManifest.xml:20:5-22:41
MERGED from [androidx.versionedparcelable:versionedparcelable:1.1.0] /home/natali/.gradle/caches/transforms-2/files-2.1/5961fd00c741ab61656dfe2b643e2052/versionedparcelable-1.1.0/AndroidManifest.xml:20:5-22:41
MERGED from [androidx.documentfile:documentfile:1.0.0] /home/natali/.gradle/caches/transforms-2/files-2.1/2051ad4906486102f58fea6dfd76b44d/documentfile-1.0.0/AndroidManifest.xml:20:5-44
MERGED from [androidx.documentfile:documentfile:1.0.0] /home/natali/.gradle/caches/transforms-2/files-2.1/2051ad4906486102f58fea6dfd76b44d/documentfile-1.0.0/AndroidManifest.xml:20:5-44
MERGED from [androidx.localbroadcastmanager:localbroadcastmanager:1.0.0] /home/natali/.gradle/caches/transforms-2/files-2.1/0aac437187eccd425125815efd52b805/localbroadcastmanager-1.0.0/AndroidManifest.xml:20:5-44
MERGED from [androidx.localbroadcastmanager:localbroadcastmanager:1.0.0] /home/natali/.gradle/caches/transforms-2/files-2.1/0aac437187eccd425125815efd52b805/localbroadcastmanager-1.0.0/AndroidManifest.xml:20:5-44
MERGED from [androidx.print:print:1.0.0] /home/natali/.gradle/caches/transforms-2/files-2.1/cf5c4deacc19f4505653c7b546389396/print-1.0.0/AndroidManifest.xml:20:5-44
MERGED from [androidx.print:print:1.0.0] /home/natali/.gradle/caches/transforms-2/files-2.1/cf5c4deacc19f4505653c7b546389396/print-1.0.0/AndroidManifest.xml:20:5-44
MERGED from [androidx.interpolator:interpolator:1.0.0] /home/natali/.gradle/caches/transforms-2/files-2.1/e9a55ea542469c774c03c44bd2536b04/interpolator-1.0.0/AndroidManifest.xml:20:5-44
MERGED from [androidx.interpolator:interpolator:1.0.0] /home/natali/.gradle/caches/transforms-2/files-2.1/e9a55ea542469c774c03c44bd2536b04/interpolator-1.0.0/AndroidManifest.xml:20:5-44
INJECTED from /home/natali/AndroidStudioProjects/new/popko/app/src/main/AndroidManifest.xml
INJECTED from /home/natali/AndroidStudioProjects/new/popko/app/src/main/AndroidManifest.xml
	android:targetSdkVersion
		INJECTED from /home/natali/AndroidStudioProjects/new/popko/app/src/main/AndroidManifest.xml
		ADDED from /home/natali/AndroidStudioProjects/new/popko/app/src/main/AndroidManifest.xml
		INJECTED from /home/natali/AndroidStudioProjects/new/popko/app/src/main/AndroidManifest.xml
	android:minSdkVersion
		INJECTED from /home/natali/AndroidStudioProjects/new/popko/app/src/main/AndroidManifest.xml
		ADDED from /home/natali/AndroidStudioProjects/new/popko/app/src/main/AndroidManifest.xml
		INJECTED from /home/natali/AndroidStudioProjects/new/popko/app/src/main/AndroidManifest.xml
provider#androidx.lifecycle.ProcessLifecycleOwnerInitializer
ADDED from [androidx.lifecycle:lifecycle-process:2.2.0] /home/natali/.gradle/caches/transforms-2/files-2.1/ded278370b8b3c329052ff7298350701/jetified-lifecycle-process-2.2.0/AndroidManifest.xml:25:9-29:43
	android:authorities
		ADDED from [androidx.lifecycle:lifecycle-process:2.2.0] /home/natali/.gradle/caches/transforms-2/files-2.1/ded278370b8b3c329052ff7298350701/jetified-lifecycle-process-2.2.0/AndroidManifest.xml:27:13-69
	android:multiprocess
		ADDED from [androidx.lifecycle:lifecycle-process:2.2.0] /home/natali/.gradle/caches/transforms-2/files-2.1/ded278370b8b3c329052ff7298350701/jetified-lifecycle-process-2.2.0/AndroidManifest.xml:29:13-40
	android:exported
		ADDED from [androidx.lifecycle:lifecycle-process:2.2.0] /home/natali/.gradle/caches/transforms-2/files-2.1/ded278370b8b3c329052ff7298350701/jetified-lifecycle-process-2.2.0/AndroidManifest.xml:28:13-37
	android:name
		ADDED from [androidx.lifecycle:lifecycle-process:2.2.0] /home/natali/.gradle/caches/transforms-2/files-2.1/ded278370b8b3c329052ff7298350701/jetified-lifecycle-process-2.2.0/AndroidManifest.xml:26:13-79
